class String
  def red; "\e[31m#{self}\e[0m" ; end
  def green; "\e[32m#{self}\e[0m" ; end
  def bold; "\e[1m#{self}\e[22m" ; end
end

# ------------------------------------------------------------------------------
print "Addition: "
puts 0x44a882933020372834391573ba007ae8be926e57243cd713985ee3d3db401b9981647357202cb773670ca88db32dfb243db7802d8dcfebd261f929107d11dc5b + 0x00f698ad905a456bfd9324e19bad3c1251045b6c1e86efe09094b08343739565f8e332d5943cee1d5ba46edc00ca7c44b75ea1cbc01cfa4a958ed20ffc4fd587 == 0x459f1b40c07a7c9431cc3a5555adb6fb0f96c9c342c3c6f428f394571eb3b0ff7a47a62cb469a590c2b11769b3f87768f51621f94dece61cf787fb207961b1e2 ? "PASS".green.bold : "FAIL".red.bold

# Addition -- Elapsed time: 00000001 ticks.
# ------------------------------------------------------------------------------
print "Mod Mult: "
puts (0x00f698ad905a456bfd9324e19bad3c1251045b6c1e86efe09094b08343739565f8e332d5943cee1d5ba46edc00ca7c44b75ea1cbc01cfa4a958ed20ffc4fd587 * 0x459f1b40c07a7c9431cc3a5555adb6fb0f96c9c342c3c6f428f394571eb3b0ff7a47a62cb469a590c2b11769b3f87768f51621f94dece61cf787fb207961b1e2) % 0x44a882933020372834391573ba007ae8be926e57243cd713985ee3d3db401b9981647357202cb773670ca88db32dfb243db7802d8dcfebd261f929107d11dc5b == 0x08639ed38f00050059e7b038e6108e05b3a5d0b766aa991b0a6d19dae30964968ea4e20af91cfd3138919dd64d47bc6cb8a534572f2cf593b78b9d6ddedd0e71 ? "PASS".green.bold : "FAIL".red.bold

# Mod Mult -- Elapsed time: 0000001c ticks.
# ------------------------------------------------------------------------------
print "Int Div:  "
puts 0x44a882933020372834391573ba007ae8be926e57243cd713985ee3d3db401b9981647357202cb773670ca88db32dfb243db7802d8dcfebd261f929107d11dc5b == 0x00f698ad905a456bfd9324e19bad3c1251045b6c1e86efe09094b08343739565f8e332d5943cee1d5ba46edc00ca7c44b75ea1cbc01cfa4a958ed20ffc4fd587 * 0x00000000000000000000000000000000000000000000000000000000000000000000000000000000000000000000000000000000000000000000000000000000 + 0x00000000000000000000000000000000000000000000000000000000000000000000000000000000000000000000000000000000000000000000000000000000 ? "PASS".green.bold : "FAIL".red.bold

# Int Div -- Elapsed time: 00000002 ticks.
# ------------------------------------------------------------------------------
print "Mult Inv: "
puts 1 == (0x00f698ad905a456bfd9324e19bad3c1251045b6c1e86efe09094b08343739565f8e332d5943cee1d5ba46edc00ca7c44b75ea1cbc01cfa4a958ed20ffc4fd587 * 0x00000000000000000000000000000000000000000000000000000000000000000000000000000000000000000000000000000000000000000000000000000000) % 0x44a882933020372834391573ba007ae8be926e57243cd713985ee3d3db401b9981647357202cb773670ca88db32dfb243db7802d8dcfebd261f929107d11dc5b ? "PASS".green.bold : "FAIL".red.bold

# Mult Inv -- Elapsed time: 00000025 ticks.
# ------------------------------------------------------------------------------
print "Mod Exp:  "
require "openssl"
puts  0x00000000000000000000000000000000000000000000000000000000000000000000000000000000000000000000000000000000000000000000000000000000.to_bn.mod_exp(0x00f698ad905a456bfd9324e19bad3c1251045b6c1e86efe09094b08343739565f8e332d5943cee1d5ba46edc00ca7c44b75ea1cbc01cfa4a958ed20ffc4fd587,0x44a882933020372834391573ba007ae8be926e57243cd713985ee3d3db401b9981647357202cb773670ca88db32dfb243db7802d8dcfebd261f929107d11dc5b) == 0x00000000000000000000000000000000000000000000000000000000000000000000000000000000000000000000000000000000000000000000000000000000 ? "PASS".green.bold : "FAIL".red.bold

# Mod Exp -- Elapsed time: 00002fc0 ticks.
